…
```
## audience_score     title_type          genre        runtime    mpaa_rating 
##              0              0              0              0              0 
## imdb_num_votes  critics_score 
##              0              0
```

```r
movies_2
```

```
## # A tibble: 650 x 7
##    audience_score   title_type       genre runtime mpaa_rating
##             <dbl>       <fctr>      <fctr>   <dbl>      <fctr>
##  1             73 Feature Film       Drama      80           R
##  2             81 Feature Film       Drama     101       PG-13
##  3             91 Feature Film      Comedy      84           R
##  4             76 Feature Film       Drama     139          PG
##  5             27 Feature Film      Horror      90           R
##  6             86  Documentary Documentary      78     Unrated
##  7             76 Feature Film       Drama     142       PG-13
##  8             47 Feature Film       Drama      93           R
##  9             89  Documentary Documentary      88     Unrated
## 10             66 Feature Film       Drama     119     Unrated
## # ... with 640 more rows, and 2 more variables: imdb_num_votes <int>,
## #   critics_score <dbl>
```
…
